Trabajo en HTML
…
Para el resto de variables, vamos a aplicar las funciones vistas en
busca de posibles outliers.

outliers <- df %>%
  summarise(across(where(is.numeric), list(Sigma = ~sum(reglasigma(.)), Boxplot = ~sum(reglaboxplot(.))),.names = "{col};{fn}"))

outliers%<>%
  pivot_longer(cols=everything(), names_to = "Var",values_to = "Valor")%>%
  separate(Var,into=c("Variable", "Regla"),sep=";")%>%
  spread(key=Regla,value=Valor)

outliers

# A tibble: 33 × 3
   Variable                        Boxplot Sigma
   <chr>                             <int> <int>
 1 area                                 11     3
 2 atur_16_64                            2     1
 3 Densidad                             NA    NA
 4 Imp. Recibos Actv. Comercial          9     3
 5 Imp. Recibos Actv. Cultural          10     1
 6 Imp. Recibos Actv. Deportiva         13     3
 7 Imp. Recibos Actv. Espectaculos      16     1
 8 Imp. Recibos Actv. Industrial         6     2
 9 Imp. Recibos Actv. Oficinas          11     2
10 Imp. Recibos Actv. Religiosas        10     5
# ℹ 23 more rows
…
